…
``` r
aisle_count = 
instacart %>%
  group_by(aisle) %>%
  summarise(n = n()) %>%
  arrange(desc(n))

aisle_count
```

    ## # A tibble: 134 × 2
    ##    aisle                              n
    ##    <chr>                          <int>
    ##  1 fresh vegetables              150609
    ##  2 fresh fruits                  150473
    ##  3 packaged vegetables fruits     78493
    ##  4 yogurt                         55240
    ##  5 packaged cheese                41699
    ##  6 water seltzer sparkling water  36617
    ##  7 milk                           32644
    ##  8 chips pretzels                 31269
    ##  9 soy lactosefree                26240
    ## 10 bread                          23635
    ## # … with 124 more rows
…
accel_df
```

    ## # A tibble: 50,400 × 6
    ##     week day_id day    weekday_vs_weekend minute_of_day n_activity
    ##    <int>  <int> <chr>  <fct>                      <int>      <int>
    ##  1     1      1 Friday weekday                        1         88
    ##  2     1      1 Friday weekday                        2         82
    ##  3     1      1 Friday weekday                        3         64
    ##  4     1      1 Friday weekday                        4         70
    ##  5     1      1 Friday weekday                        5         75
    ##  6     1      1 Friday weekday                        6         66
    ##  7     1      1 Friday weekday                        7         53
    ##  8     1      1 Friday weekday                        8         47
    ##  9     1      1 Friday weekday                        9         55
    ## 10     1      1 Friday weekday                       10         42
    ## # … with 50,390 more rows
…
Then, analyze the accelerometer data focus on the total activity over
the day.

``` r
day_total_act = 
  accel_df %>%
  group_by(day_id, day, weekday_vs_weekend) %>% 
  summarise(
    day_total_activity = sum(n_activity)
  )

day_total_act
```

    ## # A tibble: 35 × 4
    ## # Groups:   day_id, day [35]
    ##    day_id day       weekday_vs_weekend day_total_activity
    ##     <int> <chr>     <fct>                           <int>
    ##  1      1 Friday    weekday                        480280
    ##  2      2 Monday    weekday                         78674
    ##  3      3 Saturday  weekend                        376254
    ##  4      4 Sunday    weekend                        631105
    ##  5      5 Thursday  weekday                        355218
    ##  6      6 Tuesday   weekday                        306377
    ##  7      7 Wednesday weekday                        339402
    ##  8      8 Friday    weekday                        568839
    ##  9      9 Monday    weekday                        295431
    ## 10     10 Saturday  weekend                        607175
    ## # … with 25 more rows
…
``` r
ny_noaa %>% 
  drop_na(snow) %>% 
  group_by(snow) %>% 
  summarise(
    snow_count = n()
  ) %>% 
  arrange(-snow_count)
```

    ## # A tibble: 281 × 2
    ##     snow snow_count
    ##    <int>      <int>
    ##  1     0    2008508
    ##  2    25      31022
    ##  3    13      23095
    ##  4    51      18274
    ##  5    76      10173
    ##  6     8       9962
    ##  7     5       9748
    ##  8    38       9197
    ##  9     3       8790
    ## 10   102       6552
    ## # … with 271 more rows
…
